{
    "python.defaultInterpreterPath": "/home/MChamfrault/miniconda3/envs/iota2-dev-0208/bin/python",
    "python.testing.unittestArgs": [
        "-v",
        "-s",
        "./iota2/tests/unittests",
        "-p",
        "*tests*.py"
    ],
    "python.testing.pytestEnabled": false,
    "python.testing.unittestEnabled": true,
    "python.envFile": "${workspaceFolder}/.env"
}
